…
intrinsic_tidy =  intrinsic %>%
 pivot_longer(
   cols = starts_with("n_"),
   names_to = "recognized",
   names_prefix = "n_",
   values_to = "count",
   values_drop_na = TRUE
 ) %>% 
  mutate(u_duration=as.factor(u_duration)) %>%  
  # mutate(recognized=case_when(.$recognized=="kaʔta"~"katta", TRUE~.$recognized)) %>%  
  filter(recognized!="koota")
intrinsic_tidy
```

    ## # A tibble: 1,600 x 5
    ##    trial u_duration intrinsic  recognized count
    ##    <dbl> <fct>      <chr>      <chr>      <dbl>
    ##  1     0 0          production kawuta         0
    ##  2     0 0          production kawta          0
    ##  3     0 0          production kaQta         14
    ##  4     0 0          production kauta          0
    ##  5     0 0          update     kawuta         9
    ##  6     0 0          update     kawta          0
    ##  7     0 0          update     kaQta          7
    ##  8     0 0          update     kauta          0
    ##  9     0 1          production kawuta        15
    ## 10     0 1          production kawta          0
    ## # … with 1,590 more rows
…
intrinsic_tidy_w
```

    ## # A tibble: 800 x 5
    ##    trial w_duration intrinsic  recognized count
    ##    <dbl> <fct>      <chr>      <chr>      <dbl>
    ##  1     0 0          production kawuta         0
    ##  2     0 0          production kawta          0
    ##  3     0 0          production kaQta          0
    ##  4     0 0          production kauta         20
    ##  5     0 0          production koota          0
    ##  6     0 0          update     kawuta         0
    ##  7     0 0          update     kawta          0
    ##  8     0 0          update     kaQta          0
    ##  9     0 0          update     kauta         20
    ## 10     0 0          update     koota          0
    ## # … with 790 more rows
…
